…
# Basic EDA
Firstly, lets look at the data:


```r
comb
```

```
## # A tibble: 1,309 × 13
##    originates PassengerId Survived Pclass
##         <chr>       <int>    <int>  <int>
## 1       train           1        0      3
## 2       train           2        1      1
## 3       train           3        1      3
## 4       train           4        1      1
## 5       train           5        0      3
## 6       train           6        0      3
## 7       train           7        0      1
## 8       train           8        0      3
## 9       train           9        1      3
## 10      train          10        1      2
## # ... with 1,299 more rows, and 9 more variables: Name <chr>, Sex <chr>,
## #   Age <dbl>, SibSp <int>, Parch <int>, Ticket <chr>, Fare <dbl>,
## #   Cabin <chr>, Embarked <chr>
```
…
